1 move 1 0.33
2 move 2 1.0
2 move 3 1.0
1 move 4 0.33
1 exploration 1 1.0
2 exploration 2 1.0
2 exploration 3 1.0
2 exploration 4 1.0
1 prediction 1 0.75
2 prediction 2 0.86
2 prediction 3 0.66
2 prediction 4 0.73
1 find 1 0.33
2 find 2 1.0
2 find 3 1.0
1 find 4 0.33
1 user 1 0.33
1 user 2 0.33
2 user 3 1.0
2 user 4 1.0
1 interface 1 1.0
2 interface 2 1.0
2 interface 3 1.0
2 interface 4 1.0
1 pleasant 1 1.0
2 pleasant 2 1.0
2 pleasant 3 1.0
2 pleasant 4 1.0
1 am 1 0.67
2 am 2 1.0
2 am 3 1.0
1 am 4 0.0
1 puzzled 1 1.0
2 puzzled 2 1.0
2 puzzled 3 1.0
2 puzzled 4 1.0
1 find 1 0.33
2 find 2 1.0
2 find 3 1.0
1 find 4 0.33
1 way 1 0.17
2 way 2 1.0
2 way 3 0.5
1 way 4 0.33
1 prediction 1 0.75
2 prediction 2 0.86
2 prediction 3 0.66
2 prediction 4 0.73
1 mode 1 1.0
2 mode 2 1.0
2 mode 3 1.0
2 mode 4 1.0
1 have 1 0.58
2 have 2 0.77
2 have 3 0.89
2 have 4 0.09
1 explored 1 1.0
2 explored 2 1.0
2 explored 3 1.0
2 explored 4 1.0
1 file 1 0.6
2 file 2 0.6
2 file 3 0.2
2 file 4 1.0
1 can 1 0.26
1 can 2 0.11
2 can 3 0.56
2 can 4 0.56
1 help 1 0.85
2 help 2 1.0
2 help 3 0.56
2 help 4 1.0
1 do 1 0.6
2 do 2 0.6
2 do 3 0.6
2 do 4 0.6
1 get 1 0.58
2 get 2 0.5
2 get 3 0.75
2 get 4 0.5
1 column 1 0.82
2 column 2 0.64
2 column 3 1.0
2 column 4 0.82
1 comparing 1 0.33
2 comparing 2 1.0
1 comparing 3 0.33
2 comparing 4 1.0
1 v 1 1.0
2 v 2 1.0
2 v 3 1.0
2 v 4 1.0
1 current 1 1.0
2 current 2 1.0
2 current 3 1.0
2 current 4 1.0
1 data 1 0.48
2 data 2 0.46
2 data 3 0.59
2 data 4 0.39
1 set 1 0.72
2 set 2 1.0
2 set 3 0.67
2 set 4 0.5
1 understand 1 0.56
2 understand 2 1.0
1 understand 3 0.11
2 understand 4 1.0
1 made 1 0.33
1 made 2 0.33
2 made 3 1.0
2 made 4 1.0
1 see 1 0.17
2 see 2 0.5
1 see 3 0.0
1 see 4 0.0
1 comparison 1 1.0
2 comparison 2 1.0
2 comparison 3 1.0
2 comparison 4 1.0
1 actual 1 0.33
2 actual 2 1.0
2 actual 3 1.0
1 actual 4 0.33
1 result 1 0.02
1 result 2 0.2
1 result 3 0.11
2 result 4 1.0
1 predictive 1 0.05
2 predictive 2 1.0
1 predictive 3 0.14
1 predictive 4 0.14
1 model 1 0.21
2 model 2 0.56
1 model 3 0.06
2 model 4 0.26
1 possible 1 0.11
2 possible 2 0.33
2 possible 3 1.0
1 possible 4 0.33
1 bug 1 1.0
2 bug 2 1.0
2 bug 3 1.0
2 bug 4 1.0
1 is 1 0.24
2 is 2 0.47
1 is 3 0.07
2 is 4 0.47
1 wa 1 0.11
2 wa 2 0.11
2 wa 3 0.11
2 wa 4 0.11
1 appears 1 1.0
2 appears 2 1.0
2 appears 3 1.0
2 appears 4 1.0
1 inconsistency 1 1.0
2 inconsistency 2 1.0
2 inconsistency 3 1.0
2 inconsistency 4 1.0
1 interpreting 1 1.0
2 interpreting 2 1.0
2 interpreting 3 1.0
2 interpreting 4 1.0
1 ha 1 0.05
2 ha 2 0.43
2 ha 3 0.43
1 ha 4 0.24
1 integer 1 1.0
2 integer 2 1.0
2 integer 3 1.0
2 integer 4 1.0
1 value 1 0.43
2 value 2 0.43
2 value 3 0.43
2 value 4 0.43
2 are 1 0.38
1 are 2 0.08
1 are 3 0.38
2 are 4 1.0
1 missing 1 1.0
2 missing 2 1.0
2 missing 3 1.0
2 missing 4 1.0
1 designated 1 1.0
2 designated 2 1.0
2 designated 3 1.0
2 designated 4 1.0
1 string 1 1.0
2 string 2 1.0
2 string 3 1.0
2 string 4 1.0
1 na 1 1.0
2 na 2 1.0
2 na 3 1.0
2 na 4 1.0
1 in 1 1.0
2 in 2 1.0
2 in 3 1.0
2 in 4 1.0
1 explore 1 1.0
2 explore 2 1.0
2 explore 3 1.0
2 explore 4 1.0
1 your 1 1.0
2 your 2 1.0
2 your 3 1.0
2 your 4 1.0
1 interprets 1 1.0
2 interprets 2 1.0
2 interprets 3 1.0
2 interprets 4 1.0
1 number 1 0.0
1 number 2 0.0
2 number 3 1.0
1 number 4 0.33
1 create 1 1.0
2 create 2 1.0
2 create 3 1.0
2 create 4 1.0
1 workbook 1 1.0
2 workbook 2 1.0
2 workbook 3 1.0
2 workbook 4 1.0
1 use 1 0.2
2 use 2 0.6
2 use 3 0.2
1 use 4 0.07
2 predict 1 0.13
1 predict 2 0.07
2 predict 3 0.13
1 predict 4 0.01
1 same 1 0.81
2 same 2 1.0
2 same 3 0.43
2 same 4 1.0
1 seems 1 0.2
1 seems 2 0.2
2 seems 3 1.0
2 seems 4 0.2
1 be 1 0.04
1 be 2 0.09
2 be 3 0.2
2 be 4 0.2
1 interpreted 1 1.0
2 interpreted 2 1.0
2 interpreted 3 1.0
2 interpreted 4 1.0
1 categorical 1 1.0
2 categorical 2 1.0
2 categorical 3 1.0
2 categorical 4 1.0
1 variable 1 0.56
2 variable 2 1.0
1 variable 3 0.11
2 variable 4 1.0
1 creation 1 1.0
2 creation 2 1.0
2 creation 3 1.0
2 creation 4 1.0
1 past 1 1.0
2 past 2 1.0
2 past 3 1.0
2 past 4 1.0
1 been 1 0.56
1 been 2 0.11
2 been 3 1.0
2 been 4 1.0
1 trying 1 1.0
2 trying 2 1.0
2 trying 3 1.0
2 trying 4 1.0
1 excel 1 0.33
1 excel 2 0.33
2 excel 3 1.0
2 excel 4 1.0
1 dataset 1 0.87
2 dataset 2 1.0
2 dataset 3 1.0
2 dataset 4 0.6
1 uploaded 1 0.73
2 uploaded 2 0.2
2 uploaded 3 1.0
2 uploaded 4 1.0
1 point 1 0.33
2 point 2 1.0
2 point 3 1.0
1 point 4 0.33
1 building 1 1.0
2 building 2 1.0
2 building 3 1.0
2 building 4 1.0
1 loaded 1 0.56
2 loaded 2 1.0
2 loaded 3 1.0
1 loaded 4 0.11
1 whole 1 1.0
2 whole 2 1.0
2 whole 3 1.0
2 whole 4 1.0
1 come 1 0.33
2 come 2 1.0
1 come 3 0.33
2 come 4 1.0
2 modeling 1 0.2
2 modeling 2 1.0
1 modeling 3 0.73
2 modeling 4 1.0
2 need 1 0.43
2 need 2 1.0
2 need 3 0.43
1 need 4 0.62
1 thing 1 1.0
2 thing 2 1.0
2 thing 3 1.0
2 thing 4 1.0
1 figured 1 1.0
2 figured 2 1.0
2 figured 3 1.0
2 figured 4 1.0
1 first 1 1.0
2 first 2 1.0
2 first 3 1.0
2 first 4 1.0
1 example 1 0.47
2 example 2 0.2
2 example 3 1.0
2 example 4 0.2
1 state 1 0.33
2 state 2 1.0
2 state 3 1.0
1 state 4 0.33
1 second 1 1.0
2 second 2 1.0
2 second 3 1.0
2 second 4 1.0
1 exclude 1 1.0
2 exclude 2 1.0
2 exclude 3 1.0
2 exclude 4 1.0
1 redundant 1 1.0
2 redundant 2 1.0
2 redundant 3 1.0
2 redundant 4 1.0
1 field 1 0.5
2 field 2 0.25
2 field 3 0.5
2 field 4 0.75
1 occurs 1 0.33
2 occurs 2 1.0
2 occurs 3 1.0
1 occurs 4 0.33
1 event 1 1.0
2 event 2 1.0
2 event 3 1.0
2 event 4 1.0
1 being 1 0.33
1 being 2 0.33
2 being 3 1.0
2 being 4 1.0
1 predicted 1 1.0
2 predicted 2 1.0
2 predicted 3 1.0
2 predicted 4 1.0
1 hello 1 0.56
2 hello 2 1.0
2 hello 3 1.0
1 hello 4 0.11
1 able 1 0.78
2 able 2 1.0
2 able 3 0.33
2 able 4 1.0
1 existing 1 0.56
2 existing 2 1.0
1 existing 3 0.11
2 existing 4 1.0
1 today 1 1.0
2 today 2 1.0
2 today 3 1.0
2 today 4 1.0
1 my 1 0.33
2 my 2 1.0
2 my 3 1.0
1 my 4 0.33
1 step 1 1.0
2 step 2 1.0
2 step 3 1.0
2 step 4 1.0
1 choose 1 1.0
2 choose 2 1.0
2 choose 3 1.0
2 choose 4 1.0
1 new 1 0.78
2 new 2 1.0
2 new 3 0.33
2 new 4 1.0
1 naming 1 1.0
2 naming 2 1.0
2 naming 3 1.0
2 naming 4 1.0
1 next 1 0.33
2 next 2 1.0
1 next 3 0.33
2 next 4 1.0
1 disabled 1 1.0
2 disabled 2 1.0
2 disabled 3 1.0
2 disabled 4 1.0
2 algorithm 1 0.33
2 algorithm 2 1.0
1 algorithm 3 0.78
2 algorithm 4 1.0
1 doe 1 0.33
1 doe 2 0.11
2 doe 3 1.0
2 doe 4 0.33
1 watson 1 0.44
2 watson 2 0.79
2 watson 3 0.37
2 watson 4 0.16
1 edit 1 1.0
2 edit 2 1.0
2 edit 3 1.0
2 edit 4 1.0
1 property 1 1.0
2 property 2 1.0
2 property 3 1.0
2 property 4 1.0
1 project 1 1.0
2 project 2 1.0
2 project 3 1.0
2 project 4 1.0
1 load 1 0.67
1 load 2 0.0
2 load 3 1.0
2 load 4 1.0
1 target 1 0.5
2 target 2 1.0
1 target 3 0.17
2 target 4 1.0
1 select 1 1.0
2 select 2 1.0
2 select 3 1.0
2 select 4 1.0
2 like 1 0.11
2 like 2 0.56
1 like 3 0.26
2 like 4 0.11
1 displayed 1 0.33
1 displayed 2 0.33
2 displayed 3 1.0
2 displayed 4 1.0
1 source 1 1.0
2 source 2 1.0
2 source 3 1.0
2 source 4 1.0
1 window 1 1.0
2 window 2 1.0
2 window 3 1.0
2 window 4 1.0
1 work 1 0.56
2 work 2 0.33
2 work 3 0.33
2 work 4 1.0
1 nevada 1 1.0
2 nevada 2 1.0
2 nevada 3 1.0
2 nevada 4 1.0
1 chart 1 0.2
1 chart 2 0.47
2 chart 3 1.0
2 chart 4 1.0
1 table 1 1.0
2 table 2 1.0
2 table 3 1.0
2 table 4 1.0
1 standard 1 0.11
1 standard 2 0.11
2 standard 3 1.0
1 standard 4 0.11
1 format 1 0.24
1 format 2 0.43
2 format 3 1.0
2 format 4 1.0
1 failure 1 0.33
2 failure 2 1.0
2 failure 3 1.0
1 failure 4 0.33
1 ship 1 1.0
2 ship 2 1.0
2 ship 3 1.0
2 ship 4 1.0
1 month 1 0.56
2 month 2 1.0
2 month 3 1.0
1 month 4 0.11
1 quantity 1 1.0
2 quantity 2 1.0
2 quantity 3 1.0
2 quantity 4 1.0
1 having 1 1.0
2 having 2 1.0
2 having 3 1.0
2 having 4 1.0
1 going 1 1.0
2 going 2 1.0
2 going 3 1.0
2 going 4 1.0
2 report 1 0.2
1 report 2 0.47
2 report 3 0.2
2 report 4 1.0
1 return 1 1.0
2 return 2 1.0
2 return 3 1.0
2 return 4 1.0
1 subsequent 1 1.0
2 subsequent 2 1.0
2 subsequent 3 1.0
2 subsequent 4 1.0
1 seen 1 1.0
2 seen 2 1.0
2 seen 3 1.0
2 seen 4 1.0
1 recognize 1 0.33
1 recognize 2 0.33
2 recognize 3 1.0
2 recognize 4 1.0
1 much 1 0.56
2 much 2 1.0
1 much 3 0.11
2 much 4 1.0
1 anyone 1 0.11
1 anyone 2 0.11
2 anyone 3 1.0
1 anyone 4 0.11
1 tried 1 0.73
2 tried 2 1.0
2 tried 3 1.0
2 tried 4 0.2
1 stacking 1 1.0
2 stacking 2 1.0
2 stacking 3 1.0
2 stacking 4 1.0
1 term 1 0.33
2 term 2 1.0
1 term 3 0.33
2 term 4 1.0
1 any 1 1.0
2 any 2 1.0
2 any 3 1.0
2 any 4 1.0
1 thought 1 1.0
2 thought 2 1.0
2 thought 3 1.0
2 thought 4 1.0
1 suggestion 1 1.0
2 suggestion 2 1.0
2 suggestion 3 1.0
2 suggestion 4 1.0
1 moving 1 1.0
2 moving 2 1.0
2 moving 3 1.0
2 moving 4 1.0
1 looking 1 0.11
1 looking 2 0.11
1 looking 3 0.11
2 looking 4 1.0
1 rate 1 1.0
2 rate 2 1.0
2 rate 3 1.0
2 rate 4 1.0
1 recent 1 1.0
2 recent 2 1.0
2 recent 3 1.0
2 recent 4 1.0
1 onward 1 1.0
2 onward 2 1.0
2 onward 3 1.0
2 onward 4 1.0
2 show 1 0.2
1 show 2 0.56
2 show 3 0.73
2 show 4 0.73
1 name 1 1.0
2 name 2 1.0
2 name 3 1.0
2 name 4 1.0
2 character 1 0.2
1 character 2 0.73
2 character 3 1.0
2 character 4 1.0
1 fine 1 1.0
2 fine 2 1.0
2 fine 3 1.0
2 fine 4 1.0
1 mix 1 1.0
2 mix 2 1.0
2 mix 3 1.0
2 mix 4 1.0
1 encoded 1 0.33
2 encoded 2 1.0
1 encoded 3 0.33
2 encoded 4 1.0
1 problem 1 1.0
2 problem 2 1.0
2 problem 3 1.0
2 problem 4 1.0
1 unable 1 0.56
1 unable 2 0.11
2 unable 3 1.0
2 unable 4 1.0
1 loading 1 0.56
1 loading 2 0.11
2 loading 3 1.0
2 loading 4 1.0
1 above 1 1.0
2 above 2 1.0
2 above 3 1.0
2 above 4 1.0
1 message 1 1.0
2 message 2 1.0
2 message 3 1.0
2 message 4 1.0
1 keep 1 1.0
2 keep 2 1.0
2 keep 3 1.0
2 keep 4 1.0
1 appearing 1 1.0
2 appearing 2 1.0
2 appearing 3 1.0
2 appearing 4 1.0
1 happens 1 0.33
1 happens 2 0.33
2 happens 3 1.0
2 happens 4 1.0
1 failed 1 1.0
2 failed 2 1.0
2 failed 3 1.0
2 failed 4 1.0
1 basic 1 1.0
2 basic 2 1.0
2 basic 3 1.0
2 basic 4 1.0
2 hi 1 0.56
1 hi 2 0.26
1 hi 3 0.11
2 hi 4 0.56
1 structure 1 1.0
2 structure 2 1.0
2 structure 3 1.0
2 structure 4 1.0
1 attached 1 1.0
2 attached 2 1.0
2 attached 3 1.0
2 attached 4 1.0
1 try 1 0.56
2 try 2 1.0
1 try 3 0.11
2 try 4 1.0
1 system 1 0.33
2 system 2 1.0
2 system 3 1.0
1 system 4 0.33
1 say 1 0.33
2 say 2 1.0
1 say 3 0.33
2 say 4 1.0
1 predictor 1 0.0
2 predictor 2 0.5
1 predictor 3 0.33
2 predictor 4 0.5
1 were 1 0.33
1 were 2 0.33
2 were 3 1.0
2 were 4 1.0
1 found 1 0.56
1 found 2 0.11
2 found 3 1.0
2 found 4 1.0
1 x 1 0.11
1 x 2 0.11
1 x 3 0.11
2 x 4 1.0
1 what 1 1.0
2 what 2 1.0
2 what 3 1.0
2 what 4 1.0
1 wrong 1 1.0
2 wrong 2 1.0
2 wrong 3 1.0
2 wrong 4 1.0
1 course 1 1.0
2 course 2 1.0
2 course 3 1.0
2 course 4 1.0
1 expecting 1 1.0
2 expecting 2 1.0
2 expecting 3 1.0
2 expecting 4 1.0
1 few 1 0.56
1 few 2 0.11
2 few 3 1.0
2 few 4 1.0
1 testing 1 1.0
2 testing 2 1.0
2 testing 3 1.0
2 testing 4 1.0
1 analytics 1 0.0
2 analytics 2 1.0
1 analytics 3 0.11
1 analytics 4 0.22
1 defect 1 1.0
2 defect 2 1.0
2 defect 3 1.0
2 defect 4 1.0
1 database 1 1.0
2 database 2 1.0
2 database 3 1.0
2 database 4 1.0
1 maintained 1 1.0
2 maintained 2 1.0
2 maintained 3 1.0
2 maintained 4 1.0
1 track 1 1.0
2 track 2 1.0
2 track 3 1.0
2 track 4 1.0
1 issue 1 0.43
1 issue 2 0.24
2 issue 3 1.0
2 issue 4 1.0
1 development 1 0.33
2 development 2 1.0
1 development 3 0.33
2 development 4 1.0
2 team 1 0.33
2 team 2 1.0
2 team 3 0.33
1 team 4 0.56
1 yes 1 0.33
1 yes 2 0.33
2 yes 3 1.0
2 yes 4 1.0
1 know 1 0.0
2 know 2 0.5
1 know 3 0.17
1 know 4 0.0
1 fix 1 1.0
2 fix 2 1.0
2 fix 3 1.0
2 fix 4 1.0
2 available 1 0.5
1 available 2 0.0
2 available 3 0.5
1 available 4 0.33
1 level 1 1.0
2 level 2 1.0
2 level 3 1.0
2 level 4 1.0
1 recognized 1 1.0
2 recognized 2 1.0
2 recognized 3 1.0
2 recognized 4 1.0
1 id 1 1.0
2 id 2 1.0
2 id 3 1.0
2 id 4 1.0
1 included 1 0.11
2 included 2 1.0
1 included 3 0.56
2 included 4 1.0
1 experiencing 1 1.0
2 experiencing 2 1.0
2 experiencing 3 1.0
2 experiencing 4 1.0
1 running 1 0.33
1 running 2 0.0
1 running 3 0.0
2 running 4 1.0
1 ibm 1 0.11
2 ibm 2 1.0
1 ibm 3 0.56
2 ibm 4 1.0
1 numeric 1 1.0
2 numeric 2 1.0
2 numeric 3 1.0
2 numeric 4 1.0
1 sick 1 1.0
2 sick 2 1.0
2 sick 3 1.0
2 sick 4 1.0
1 healthy 1 1.0
2 healthy 2 1.0
2 healthy 3 1.0
2 healthy 4 1.0
1 aim 1 1.0
2 aim 2 1.0
2 aim 3 1.0
2 aim 4 1.0
1 gene 1 1.0
2 gene 2 1.0
2 gene 3 1.0
2 gene 4 1.0
1 expression 1 1.0
2 expression 2 1.0
2 expression 3 1.0
2 expression 4 1.0
1 differs 1 1.0
2 differs 2 1.0
2 differs 3 1.0
2 differs 4 1.0
1 patient 1 1.0
2 patient 2 1.0
2 patient 3 1.0
2 patient 4 1.0
1 decision 1 0.2
1 decision 2 0.47
2 decision 3 1.0
2 decision 4 1.0
1 tree 1 0.26
1 tree 2 0.41
2 tree 3 1.0
2 tree 4 1.0
1 perfect 1 1.0
2 perfect 2 1.0
2 perfect 3 1.0
2 perfect 4 1.0
1 run 1 1.0
2 run 2 1.0
2 run 3 1.0
2 run 4 1.0
1 include 1 0.33
1 include 2 0.33
2 include 3 1.0
2 include 4 1.0
1 on 1 0.33
2 on 2 1.0
1 on 3 0.33
2 on 4 1.0
1 contrary 1 1.0
2 contrary 2 1.0
2 contrary 3 1.0
2 contrary 4 1.0
1 considered 1 0.33
2 considered 2 1.0
1 considered 3 0.33
2 considered 4 1.0
1 explanatory 1 1.0
2 explanatory 2 1.0
2 explanatory 3 1.0
2 explanatory 4 1.0
1 change 1 0.56
2 change 2 0.33
2 change 3 1.0
2 change 4 0.33
1 role 1 1.0
2 role 2 1.0
2 role 3 1.0
2 role 4 1.0
1 decide 1 1.0
2 decide 2 1.0
2 decide 3 1.0
2 decide 4 1.0
2 thanks 1 0.2
2 thanks 2 0.6
1 thanks 3 0.33
2 thanks 4 0.2
1 ignore 1 1.0
2 ignore 2 1.0
2 ignore 3 1.0
2 ignore 4 1.0
1 refine 1 1.0
2 refine 2 1.0
2 refine 3 1.0
2 refine 4 1.0
1 industry 1 1.0
2 industry 2 1.0
2 industry 3 1.0
2 industry 4 1.0
1 government 1 1.0
2 government 2 1.0
2 government 3 1.0
2 government 4 1.0
1 filter 1 0.11
2 filter 2 1.0
1 filter 3 0.56
2 filter 4 1.0
2 record 1 0.56
2 record 2 1.0
2 record 3 0.56
1 record 4 0.7
2 used 1 0.11
2 used 2 1.0
1 used 3 0.26
1 used 4 0.11
1 saved 1 1.0
2 saved 2 1.0
2 saved 3 1.0
2 saved 4 1.0
1 refined 1 1.0
2 refined 2 1.0
2 refined 3 1.0
2 refined 4 1.0
1 opened 1 1.0
2 opened 2 1.0
2 opened 3 1.0
2 opened 4 1.0
1 showing 1 0.11
1 showing 2 0.11
2 showing 3 1.0
1 showing 4 0.11
1 ignores 1 1.0
2 ignores 2 1.0
2 ignores 3 1.0
2 ignores 4 1.0
1 refinement 1 1.0
2 refinement 2 1.0
2 refinement 3 1.0
2 refinement 4 1.0
1 us 1 0.11
2 us 2 1.0
1 us 3 0.11
1 us 4 0.11
1 original 1 1.0
2 original 2 1.0
2 original 3 1.0
2 original 4 1.0
1 full 1 1.0
2 full 2 1.0
2 full 3 1.0
2 full 4 1.0
1 designed 1 1.0
2 designed 2 1.0
2 designed 3 1.0
2 designed 4 1.0
1 getting 1 1.0
2 getting 2 1.0
2 getting 3 1.0
2 getting 4 1.0
1 following 1 1.0
2 following 2 1.0
2 following 3 1.0
2 following 4 1.0
1 error 1 1.0
2 error 2 1.0
2 error 3 1.0
2 error 4 1.0
1 process 1 1.0
2 process 2 1.0
2 process 3 1.0
2 process 4 1.0
1 response 1 1.0
2 response 2 1.0
2 response 3 1.0
2 response 4 1.0
1 support 1 1.0
2 support 2 1.0
2 support 3 1.0
2 support 4 1.0
1 please 1 1.0
2 please 2 1.0
2 please 3 1.0
2 please 4 1.0
1 entire 1 1.0
2 entire 2 1.0
2 entire 3 1.0
2 entire 4 1.0
1 detail 1 1.0
2 detail 2 1.0
2 detail 3 1.0
2 detail 4 1.0
1 application 1 1.0
2 application 2 1.0
2 application 3 1.0
2 application 4 1.0
1 generating 1 1.0
2 generating 2 1.0
2 generating 3 1.0
2 generating 4 1.0
1 unknown 1 1.0
2 unknown 2 1.0
2 unknown 3 1.0
2 unknown 4 1.0
1 different 1 0.11
2 different 2 1.0
1 different 3 0.56
2 different 4 1.0
1 generated 1 1.0
2 generated 2 1.0
2 generated 3 1.0
2 generated 4 1.0
1 many 1 1.0
2 many 2 1.0
2 many 3 1.0
2 many 4 1.0
1 cause 1 1.0
2 cause 2 1.0
2 cause 3 1.0
2 cause 4 1.0
1 old 1 0.33
2 old 2 1.0
2 old 3 1.0
1 old 4 0.33
1 delete 1 1.0
2 delete 2 1.0
2 delete 3 1.0
2 delete 4 1.0
1 sw 1 1.0
2 sw 2 1.0
2 sw 3 1.0
2 sw 4 1.0
1 want 1 0.2
2 want 2 1.0
2 want 3 1.0
1 want 4 0.47
1 given 1 1.0
2 given 2 1.0
2 given 3 1.0
2 given 4 1.0
1 option 1 0.2
1 option 2 0.47
2 option 3 1.0
2 option 4 1.0
1 other 1 0.11
2 other 2 1.0
2 other 3 0.33
1 other 4 0.33
1 deleted 1 1.0
2 deleted 2 1.0
2 deleted 3 1.0
2 deleted 4 1.0
1 reopened 1 1.0
2 reopened 2 1.0
2 reopened 3 1.0
2 reopened 4 1.0
1 sheet 1 1.0
2 sheet 2 1.0
2 sheet 3 1.0
2 sheet 4 1.0
1 reloaded 1 1.0
2 reloaded 2 1.0
2 reloaded 3 1.0
2 reloaded 4 1.0
1 memorized 1 1.0
2 memorized 2 1.0
2 memorized 3 1.0
2 memorized 4 1.0
1 re 1 1.0
2 re 2 1.0
2 re 3 1.0
2 re 4 1.0
1 link 1 1.0
2 link 2 1.0
2 link 3 1.0
2 link 4 1.0
1 working 1 0.2
2 working 2 1.0
2 working 3 0.2
1 working 4 0.2
1 due 1 0.33
2 due 2 1.0
1 due 3 0.33
2 due 4 1.0
2 make 1 0.33
1 make 2 0.11
1 make 3 0.11
2 make 4 0.33
1 several 1 1.0
2 several 2 1.0
2 several 3 1.0
2 several 4 1.0
1 situation 1 1.0
2 situation 2 1.0
2 situation 3 1.0
2 situation 4 1.0
1 outcome 1 1.0
2 outcome 2 1.0
2 outcome 3 1.0
2 outcome 4 1.0
1 n 1 1.0
2 n 2 1.0
2 n 3 1.0
2 n 4 1.0
1 go 1 0.56
1 go 2 0.11
2 go 3 1.0
2 go 4 1.0
1 upload 1 1.0
2 upload 2 1.0
2 upload 3 1.0
2 upload 4 1.0
1 attribute 1 1.0
2 attribute 2 1.0
2 attribute 3 1.0
2 attribute 4 1.0
1 multiple 1 1.0
2 multiple 2 1.0
2 multiple 3 1.0
2 multiple 4 1.0
1 gone 1 1.0
2 gone 2 1.0
2 gone 3 1.0
2 gone 4 1.0
1 anybody 1 1.0
2 anybody 2 1.0
2 anybody 3 1.0
2 anybody 4 1.0
1 i 1 0.47
2 i 2 1.0
2 i 3 0.2
2 i 4 0.2
1 cleaning 1 1.0
2 cleaning 2 1.0
2 cleaning 3 1.0
2 cleaning 4 1.0
1 cache 1 1.0
2 cache 2 1.0
2 cache 3 1.0
2 cache 4 1.0
1 june 1 1.0
2 june 2 1.0
2 june 3 1.0
2 june 4 1.0
1 feature 1 0.56
2 feature 2 1.0
1 feature 3 0.11
2 feature 4 1.0
1 blank 1 0.33
1 blank 2 0.33
2 blank 3 1.0
2 blank 4 1.0
1 screen 1 0.56
1 screen 2 0.11
2 screen 3 1.0
2 screen 4 1.0
1 marked 1 1.0
2 marked 2 1.0
2 marked 3 1.0
2 marked 4 1.0
1 exclamation 1 1.0
2 exclamation 2 1.0
2 exclamation 3 1.0
2 exclamation 4 1.0
1 mark 1 1.0
2 mark 2 1.0
2 mark 3 1.0
2 mark 4 1.0
1 meaning 1 1.0
2 meaning 2 1.0
2 meaning 3 1.0
2 meaning 4 1.0
1 case 1 0.2
2 case 2 0.2
2 case 3 1.0
1 case 4 0.2
1 removing 1 1.0
2 removing 2 1.0
2 removing 3 1.0
2 removing 4 1.0
1 independent 1 0.67
2 independent 2 1.0
1 independent 3 0.0
2 independent 4 1.0
1 remove 1 1.0
2 remove 2 1.0
2 remove 3 1.0
2 remove 4 1.0
1 play 1 1.0
2 play 2 1.0
2 play 3 1.0
2 play 4 1.0
1 built 1 0.11
2 built 2 1.0
1 built 3 0.56
2 built 4 1.0
1 certain 1 0.33
2 certain 2 1.0
2 certain 3 1.0
1 certain 4 0.33
1 oversample 1 1.0
2 oversample 2 1.0
2 oversample 3 1.0
2 oversample 4 1.0
1 low 1 0.56
2 low 2 1.0
2 low 3 1.0
1 low 4 0.11
1 wondering 1 0.33
2 wondering 2 1.0
2 wondering 3 1.0
1 wondering 4 0.33
1 needed 1 1.0
2 needed 2 1.0
2 needed 3 1.0
2 needed 4 1.0
1 sample 1 0.33
2 sample 2 1.0
1 sample 3 0.33
2 sample 4 1.0
1 noise 1 1.0
2 noise 2 1.0
2 noise 3 1.0
2 noise 4 1.0
1 discern 1 1.0
2 discern 2 1.0
2 discern 3 1.0
2 discern 4 1.0
1 pattern 1 1.0
2 pattern 2 1.0
2 pattern 3 1.0
2 pattern 4 1.0
1 distribution 1 1.0
2 distribution 2 1.0
2 distribution 3 1.0
2 distribution 4 1.0
1 good 1 0.33
2 good 2 1.0
1 good 3 0.33
2 good 4 1.0
1 answer 1 1.0
2 answer 2 1.0
2 answer 3 1.0
2 answer 4 1.0
1 question 1 1.0
2 question 2 1.0
2 question 3 1.0
2 question 4 1.0
1 high 1 1.0
2 high 2 1.0
2 high 3 1.0
2 high 4 1.0
1 analysis 1 0.2
2 analysis 2 1.0
2 analysis 3 0.2
1 analysis 4 0.2
1 when 1 0.33
2 when 2 1.0
1 when 3 0.33
2 when 4 1.0
1 regression 1 0.0
2 regression 2 1.0
1 regression 3 0.67
2 regression 4 1.0
1 recreate 1 1.0
2 recreate 2 1.0
2 recreate 3 1.0
2 recreate 4 1.0
1 achieved 1 1.0
2 achieved 2 1.0
2 achieved 3 1.0
2 achieved 4 1.0
1 statistical 1 0.11
1 statistical 2 0.56
2 statistical 3 1.0
2 statistical 4 1.0
1 test 1 1.0
2 test 2 1.0
2 test 3 1.0
2 test 4 1.0
1 followed 1 1.0
2 followed 2 1.0
2 followed 3 1.0
2 followed 4 1.0
1 copied 1 1.0
2 copied 2 1.0
2 copied 3 1.0
2 copied 4 1.0
1 outlined 1 1.0
2 outlined 2 1.0
2 outlined 3 1.0
2 outlined 4 1.0
1 evaluate 1 1.0
2 evaluate 2 1.0
2 evaluate 3 1.0
2 evaluate 4 1.0
1 provide 1 1.0
2 provide 2 1.0
2 provide 3 1.0
2 provide 4 1.0
1 more 1 0.33
2 more 2 1.0
1 more 3 0.0
1 more 4 0.0
1 detailed 1 1.0
2 detailed 2 1.0
2 detailed 3 1.0
2 detailed 4 1.0
1 calculated 1 0.11
2 calculated 2 1.0
1 calculated 3 0.56
2 calculated 4 1.0
1 type 1 0.11
1 type 2 0.56
2 type 3 1.0
2 type 4 1.0
1 ignored 1 1.0
2 ignored 2 1.0
2 ignored 3 1.0
2 ignored 4 1.0
1 encounter 1 1.0
2 encounter 2 1.0
2 encounter 3 1.0
2 encounter 4 1.0
1 making 1 1.0
2 making 2 1.0
2 making 3 1.0
2 making 4 1.0
1 attempt 1 1.0
2 attempt 2 1.0
2 attempt 3 1.0
2 attempt 4 1.0
1 idea 1 0.33
1 idea 2 0.33
2 idea 3 1.0
2 idea 4 1.0
1 hope 1 1.0
2 hope 2 1.0
2 hope 3 1.0
2 hope 4 1.0
1 encountered 1 0.33
1 encountered 2 0.33
2 encountered 3 1.0
2 encountered 4 1.0
1 clicked 1 1.0
2 clicked 2 1.0
2 clicked 3 1.0
2 clicked 4 1.0
1 apply 1 0.11
2 apply 2 1.0
2 apply 3 1.0
1 apply 4 0.56
1 refuse 1 1.0
2 refuse 2 1.0
2 refuse 3 1.0
2 refuse 4 1.0
1 main 1 1.0
2 main 2 1.0
2 main 3 1.0
2 main 4 1.0
1 view 1 0.0
1 view 2 0.67
2 view 3 1.0
2 view 4 1.0
1 stuck 1 1.0
2 stuck 2 1.0
2 stuck 3 1.0
2 stuck 4 1.0
1 page 1 0.67
1 page 2 0.0
2 page 3 1.0
2 page 4 1.0
1 after 1 1.0
2 after 2 1.0
2 after 3 1.0
2 after 4 1.0
1 reload 1 1.0
2 reload 2 1.0
2 reload 3 1.0
2 reload 4 1.0
1 browser 1 1.0
2 browser 2 1.0
2 browser 3 1.0
2 browser 4 1.0
1 multivariate 1 1.0
2 multivariate 2 1.0
2 multivariate 3 1.0
2 multivariate 4 1.0
1 linear 1 1.0
2 linear 2 1.0
2 linear 3 1.0
2 linear 4 1.0
1 using 1 0.11
2 using 2 1.0
1 using 3 0.56
2 using 4 1.0
1 a 1 1.0
2 a 2 1.0
2 a 3 1.0
2 a 4 1.0
1 give 1 1.0
2 give 2 1.0
2 give 3 1.0
2 give 4 1.0
2 time 1 0.56
2 time 2 1.0
1 time 3 0.26
1 time 4 0.26
1 move 1 0.33
2 move 2 1.0
2 move 3 1.0
1 move 4 0.33
1 prediction 1 0.75
2 prediction 2 0.86
2 prediction 3 0.66
2 prediction 4 0.73
1 user 1 0.33
1 user 2 0.33
2 user 3 1.0
2 user 4 1.0
1 interface 1 1.0
2 interface 2 1.0
2 interface 3 1.0
2 interface 4 1.0
1 am 1 0.67
2 am 2 1.0
2 am 3 1.0
1 am 4 0.0
1 puzzled 1 1.0
2 puzzled 2 1.0
2 puzzled 3 1.0
2 puzzled 4 1.0
1 find 1 0.33
2 find 2 1.0
2 find 3 1.0
1 find 4 0.33
1 mode 1 1.0
2 mode 2 1.0
2 mode 3 1.0
2 mode 4 1.0
1 have 1 0.58
2 have 2 0.77
2 have 3 0.89
2 have 4 0.09
1 explored 1 1.0
2 explored 2 1.0
2 explored 3 1.0
2 explored 4 1.0
1 current 1 1.0
2 current 2 1.0
2 current 3 1.0
2 current 4 1.0
1 see 1 0.17
2 see 2 0.5
1 see 3 0.0
1 see 4 0.0
1 comparison 1 1.0
2 comparison 2 1.0
2 comparison 3 1.0
2 comparison 4 1.0
1 result 1 0.02
1 result 2 0.2
1 result 3 0.11
2 result 4 1.0
1 bug 1 1.0
2 bug 2 1.0
2 bug 3 1.0
2 bug 4 1.0
1 wa 1 0.11
2 wa 2 0.11
2 wa 3 0.11
2 wa 4 0.11
1 appears 1 1.0
2 appears 2 1.0
2 appears 3 1.0
2 appears 4 1.0
1 inconsistency 1 1.0
2 inconsistency 2 1.0
2 inconsistency 3 1.0
2 inconsistency 4 1.0
1 interpreting 1 1.0
2 interpreting 2 1.0
2 interpreting 3 1.0
2 interpreting 4 1.0
1 ha 1 0.05
2 ha 2 0.43
2 ha 3 0.43
1 ha 4 0.24
1 integer 1 1.0
2 integer 2 1.0
2 integer 3 1.0
2 integer 4 1.0
1 na 1 1.0
2 na 2 1.0
2 na 3 1.0
2 na 4 1.0
1 explore 1 1.0
2 explore 2 1.0
2 explore 3 1.0
2 explore 4 1.0
1 interprets 1 1.0
2 interprets 2 1.0
2 interprets 3 1.0
2 interprets 4 1.0
1 create 1 1.0
2 create 2 1.0
2 create 3 1.0
2 create 4 1.0
1 workbook 1 1.0
2 workbook 2 1.0
2 workbook 3 1.0
2 workbook 4 1.0
1 use 1 0.2
2 use 2 0.6
2 use 3 0.2
1 use 4 0.07
2 predict 1 0.13
1 predict 2 0.07
2 predict 3 0.13
1 predict 4 0.01
1 same 1 0.81
2 same 2 1.0
2 same 3 0.43
2 same 4 1.0
1 variable 1 0.56
2 variable 2 1.0
1 variable 3 0.11
2 variable 4 1.0
1 creation 1 1.0
2 creation 2 1.0
2 creation 3 1.0
2 creation 4 1.0
1 dataset 1 0.87
2 dataset 2 1.0
2 dataset 3 1.0
2 dataset 4 0.6
1 uploaded 1 0.73
2 uploaded 2 0.2
2 uploaded 3 1.0
2 uploaded 4 1.0
1 building 1 1.0
2 building 2 1.0
2 building 3 1.0
2 building 4 1.0
2 modeling 1 0.2
2 modeling 2 1.0
1 modeling 3 0.73
2 modeling 4 1.0
2 need 1 0.43
2 need 2 1.0
2 need 3 0.43
1 need 4 0.62
1 figured 1 1.0
2 figured 2 1.0
2 figured 3 1.0
2 figured 4 1.0
1 first 1 1.0
2 first 2 1.0
2 first 3 1.0
2 first 4 1.0
1 example 1 0.47
2 example 2 0.2
2 example 3 1.0
2 example 4 0.2
1 second 1 1.0
2 second 2 1.0
2 second 3 1.0
2 second 4 1.0
1 exclude 1 1.0
2 exclude 2 1.0
2 exclude 3 1.0
2 exclude 4 1.0
1 redundant 1 1.0
2 redundant 2 1.0
2 redundant 3 1.0
2 redundant 4 1.0
1 occurs 1 0.33
2 occurs 2 1.0
2 occurs 3 1.0
1 occurs 4 0.33
1 being 1 0.33
1 being 2 0.33
2 being 3 1.0
2 being 4 1.0
1 predicted 1 1.0
2 predicted 2 1.0
2 predicted 3 1.0
2 predicted 4 1.0
1 hello 1 0.56
2 hello 2 1.0
2 hello 3 1.0
1 hello 4 0.11
1 able 1 0.78
2 able 2 1.0
2 able 3 0.33
2 able 4 1.0
1 existing 1 0.56
2 existing 2 1.0
1 existing 3 0.11
2 existing 4 1.0
1 choose 1 1.0
2 choose 2 1.0
2 choose 3 1.0
2 choose 4 1.0
1 new 1 0.78
2 new 2 1.0
2 new 3 0.33
2 new 4 1.0
1 next 1 0.33
2 next 2 1.0
1 next 3 0.33
2 next 4 1.0
1 disabled 1 1.0
2 disabled 2 1.0
2 disabled 3 1.0
2 disabled 4 1.0
1 watson 1 0.44
2 watson 2 0.79
2 watson 3 0.37
2 watson 4 0.16
1 edit 1 1.0
2 edit 2 1.0
2 edit 3 1.0
2 edit 4 1.0
1 property 1 1.0
2 property 2 1.0
2 property 3 1.0
2 property 4 1.0
1 select 1 1.0
2 select 2 1.0
2 select 3 1.0
2 select 4 1.0
2 like 1 0.11
2 like 2 0.56
1 like 3 0.26
2 like 4 0.11
1 displayed 1 0.33
1 displayed 2 0.33
2 displayed 3 1.0
2 displayed 4 1.0
1 source 1 1.0
2 source 2 1.0
2 source 3 1.0
2 source 4 1.0
1 window 1 1.0
2 window 2 1.0
2 window 3 1.0
2 window 4 1.0
1 work 1 0.56
2 work 2 0.33
2 work 3 0.33
2 work 4 1.0
1 nevada 1 1.0
2 nevada 2 1.0
2 nevada 3 1.0
2 nevada 4 1.0
1 chart 1 0.2
1 chart 2 0.47
2 chart 3 1.0
2 chart 4 1.0
1 table 1 1.0
2 table 2 1.0
2 table 3 1.0
2 table 4 1.0
1 standard 1 0.11
1 standard 2 0.11
2 standard 3 1.0
1 standard 4 0.11
1 format 1 0.24
1 format 2 0.43
2 format 3 1.0
2 format 4 1.0
1 failure 1 0.33
2 failure 2 1.0
2 failure 3 1.0
1 failure 4 0.33
1 month 1 0.56
2 month 2 1.0
2 month 3 1.0
1 month 4 0.11
1 quantity 1 1.0
2 quantity 2 1.0
2 quantity 3 1.0
2 quantity 4 1.0
1 having 1 1.0
2 having 2 1.0
2 having 3 1.0
2 having 4 1.0
2 report 1 0.2
1 report 2 0.47
2 report 3 0.2
2 report 4 1.0
1 return 1 1.0
2 return 2 1.0
2 return 3 1.0
2 return 4 1.0
1 subsequent 1 1.0
2 subsequent 2 1.0
2 subsequent 3 1.0
2 subsequent 4 1.0
1 recognize 1 0.33
1 recognize 2 0.33
2 recognize 3 1.0
2 recognize 4 1.0
1 much 1 0.56
2 much 2 1.0
1 much 3 0.11
2 much 4 1.0
1 stacking 1 1.0
2 stacking 2 1.0
2 stacking 3 1.0
2 stacking 4 1.0
1 any 1 1.0
2 any 2 1.0
2 any 3 1.0
2 any 4 1.0
1 suggestion 1 1.0
2 suggestion 2 1.0
2 suggestion 3 1.0
2 suggestion 4 1.0
1 looking 1 0.11
1 looking 2 0.11
1 looking 3 0.11
2 looking 4 1.0
1 rate 1 1.0
2 rate 2 1.0
2 rate 3 1.0
2 rate 4 1.0
1 recent 1 1.0
2 recent 2 1.0
2 recent 3 1.0
2 recent 4 1.0
2 show 1 0.2
1 show 2 0.56
2 show 3 0.73
2 show 4 0.73
1 fine 1 1.0
2 fine 2 1.0
2 fine 3 1.0
2 fine 4 1.0
1 mix 1 1.0
2 mix 2 1.0
2 mix 3 1.0
2 mix 4 1.0
1 encoded 1 0.33
2 encoded 2 1.0
1 encoded 3 0.33
2 encoded 4 1.0
1 problem 1 1.0
2 problem 2 1.0
2 problem 3 1.0
2 problem 4 1.0
1 loading 1 0.56
1 loading 2 0.11
2 loading 3 1.0
2 loading 4 1.0
1 keep 1 1.0
2 keep 2 1.0
2 keep 3 1.0
2 keep 4 1.0
1 appearing 1 1.0
2 appearing 2 1.0
2 appearing 3 1.0
2 appearing 4 1.0
1 basic 1 1.0
2 basic 2 1.0
2 basic 3 1.0
2 basic 4 1.0
2 hi 1 0.56
1 hi 2 0.26
1 hi 3 0.11
2 hi 4 0.56
2 spss 1 1.0
2 spss 2 1.0
1 spss 3 0.81
2 spss 4 0.43
2 modeler 1 1.0
2 modeler 2 1.0
1 modeler 3 1.0
2 modeler 4 1.0
2 subset 1 1.0
2 subset 2 1.0
1 subset 3 1.0
2 subset 4 1.0
2 provided 1 1.0
2 provided 2 1.0
1 provided 3 1.0
2 provided 4 1.0
2 validated 1 1.0
2 validated 2 1.0
1 validated 3 1.0
2 validated 4 1.0
2 remaining 1 1.0
2 remaining 2 1.0
1 remaining 3 1.0
2 remaining 4 1.0
2 piece 1 1.0
2 piece 2 1.0
1 piece 3 1.0
2 piece 4 1.0
2 information 1 1.0
2 information 2 1.0
1 information 3 0.11
1 information 4 0.56
2 percentage 1 1.0
2 percentage 2 1.0
1 percentage 3 1.0
2 percentage 4 1.0
2 take 1 1.0
2 take 2 1.0
1 take 3 1.0
2 take 4 1.0
2 release 1 1.0
2 release 2 1.0
1 release 3 1.0
2 release 4 1.0
2 plan 1 1.0
2 plan 2 0.2
1 plan 3 0.47
2 plan 4 0.2
2 adding 1 1.0
2 adding 2 1.0
1 adding 3 1.0
2 adding 4 1.0
2 product 1 1.0
2 product 2 1.0
1 product 3 1.0
2 product 4 1.0
2 share 1 1.0
2 share 2 1.0
1 share 3 1.0
2 share 4 1.0
2 road 1 1.0
2 road 2 1.0
1 road 3 1.0
2 road 4 1.0
2 map 1 1.0
2 map 2 1.0
1 map 3 1.0
2 map 4 1.0
2 once 1 1.0
2 once 2 1.0
1 once 3 1.0
2 once 4 1.0
2 developed 1 1.0
2 developed 2 1.0
1 developed 3 1.0
2 developed 4 1.0
2 explain 1 1.0
2 explain 2 1.0
1 explain 3 1.0
2 explain 4 1.0
2 capability 1 1.0
2 capability 2 1.0
1 capability 3 0.11
1 capability 4 0.56
2 outlier 1 1.0
2 outlier 2 1.0
1 outlier 3 1.0
2 outlier 4 1.0
2 excluded 1 1.0
2 excluded 2 1.0
1 excluded 3 1.0
2 excluded 4 1.0
2 quality 1 1.0
1 quality 2 0.33
1 quality 3 0.0
1 quality 4 0.0
2 somehow 1 1.0
2 somehow 2 1.0
1 somehow 3 1.0
2 somehow 4 1.0
2 tell 1 1.0
2 tell 2 1.0
1 tell 3 1.0
2 tell 4 1.0
2 classification 1 1.0
2 classification 2 1.0
1 classification 3 1.0
2 classification 4 1.0
2 open 1 1.0
2 open 2 1.0
1 open 3 1.0
2 open 4 1.0
2 might 1 1.0
2 might 2 1.0
1 might 3 1.0
2 might 4 1.0
2 series 1 1.0
2 series 2 1.0
1 series 3 1.0
2 series 4 1.0
2 univariate 1 1.0
2 univariate 2 1.0
1 univariate 3 1.0
2 univariate 4 1.0
2 prepared 1 1.0
2 prepared 2 1.0
1 prepared 3 1.0
2 prepared 4 1.0
2 compared 1 1.0
2 compared 2 1.0
1 compared 3 1.0
2 compared 4 1.0
2 ensemble 1 1.0
2 ensemble 2 1.0
1 ensemble 3 1.0
2 ensemble 4 1.0
2 logistic 1 1.0
2 logistic 2 1.0
1 logistic 3 1.0
2 logistic 4 1.0
2 default 1 1.0
2 default 2 1.0
1 default 3 1.0
2 default 4 1.0
2 got 1 1.0
2 got 2 1.0
1 got 3 1.0
2 got 4 1.0
2 better 1 1.0
2 better 2 1.0
1 better 3 1.0
2 better 4 1.0
2 modeler.. 1 1.0
2 modeler.. 2 1.0
1 modeler.. 3 1.0
2 modeler.. 4 1.0
2 threshold 1 1.0
2 threshold 2 1.0
1 threshold 3 1.0
2 threshold 4 1.0
2 defining 1 1.0
2 defining 2 1.0
1 defining 3 1.0
2 defining 4 1.0
2 top 1 1.0
2 top 2 1.0
1 top 3 1.0
2 top 4 1.0
2 ranking 1 1.0
2 ranking 2 1.0
1 ranking 3 1.0
2 ranking 4 1.0
2 strength 1 1.0
2 strength 2 1.0
1 strength 3 1.0
2 strength 4 1.0
2 thank 1 1.0
1 thank 2 0.33
1 thank 3 0.33
2 thank 4 1.0
2 money 1 1.0
2 money 2 1.0
1 money 3 1.0
2 money 4 1.0
2 spent 1 1.0
2 spent 2 1.0
1 spent 3 1.0
2 spent 4 1.0
2 audio 1 1.0
2 audio 2 1.0
1 audio 3 1.0
2 audio 4 1.0
2 visual 1 1.0
2 visual 2 1.0
1 visual 3 1.0
2 visual 4 1.0
2 installation 1 1.0
2 installation 2 1.0
1 installation 3 1.0
2 installation 4 1.0
2 georgia 1 1.0
2 georgia 2 1.0
1 georgia 3 1.0
2 georgia 4 1.0
2 behind 1 1.0
2 behind 2 1.0
1 behind 3 1.0
2 behind 4 1.0
2 dear 1 1.0
2 dear 2 1.0
1 dear 3 1.0
2 dear 4 1.0
2 paper 1 1.0
2 paper 2 1.0
1 paper 3 1.0
2 paper 4 1.0
2 describing 1 1.0
2 describing 2 1.0
1 describing 3 1.0
2 describing 4 1.0
2 part 1 1.0
1 part 2 0.33
1 part 3 0.33
2 part 4 1.0
2 detecting 1 1.0
2 detecting 2 1.0
1 detecting 3 1.0
2 detecting 4 1.0
2 differ 1 1.0
2 differ 2 1.0
1 differ 3 1.0
2 differ 4 1.0
2 others 1 1.0
1 others 2 0.33
1 others 3 0.33
2 others 4 1.0
2 hence 1 1.0
1 hence 2 0.11
1 hence 3 0.11
1 hence 4 0.11
2 generate 1 1.0
2 generate 2 1.0
1 generate 3 1.0
2 generate 4 1.0
2 statistic 1 1.0
2 statistic 2 1.0
1 statistic 3 0.33
1 statistic 4 0.33
2 integrated 1 1.0
2 integrated 2 1.0
1 integrated 3 1.0
2 integrated 4 1.0
2 read 1 1.0
2 read 2 1.0
1 read 3 1.0
2 read 4 1.0
2 web 1 1.0
2 web 2 1.0
1 web 3 1.0
2 web 4 1.0
2 software 1 1.0
2 software 2 1.0
1 software 3 1.0
2 software 4 1.0
2 trend 1 1.0
2 trend 2 1.0
1 trend 3 1.0
2 trend 4 1.0
2 interaction 1 1.0
2 interaction 2 1.0
1 interaction 3 1.0
2 interaction 4 1.0
2 let 1 1.0
2 let 2 1.0
1 let 3 1.0
2 let 4 1.0
2 containing 1 1.0
2 containing 2 1.0
1 containing 3 1.0
2 containing 4 1.0
2 revenue 1 1.0
2 revenue 2 1.0
1 revenue 3 1.0
2 revenue 4 1.0
2 geography 1 1.0
2 geography 2 1.0
1 geography 3 1.0
2 geography 4 1.0
2 last 1 1.0
2 last 2 1.0
1 last 3 0.33
1 last 4 0.33
2 quarter 1 1.0
2 quarter 2 1.0
1 quarter 3 1.0
2 quarter 4 1.0
2 functionality 1 1.0
1 functionality 2 0.33
1 functionality 3 0.33
2 functionality 4 1.0
2 predicting 1 1.0
2 predicting 2 1.0
1 predicting 3 0.33
1 predicting 4 0.33
2 likely 1 1.0
2 likely 2 1.0
1 likely 3 0.11
1 likely 4 0.56
2 based 1 1.0
2 based 2 1.0
1 based 3 0.33
1 based 4 0.33
2 rule 1 1.0
1 rule 2 0.11
1 rule 3 0.56
2 rule 4 1.0
2 rank 1 1.0
2 rank 2 1.0
1 rank 3 1.0
2 rank 4 1.0
2 possibility 1 1.0
2 possibility 2 1.0
1 possibility 3 1.0
2 possibility 4 1.0
2 add 1 1.0
2 add 2 1.0
1 add 3 1.0
2 add 4 1.0
2 section 1 1.0
2 section 2 1.0
1 section 3 1.0
2 section 4 1.0
2 how 1 1.0
2 how 2 1.0
1 how 3 1.0
2 how 4 1.0
2 binning 1 1.0
2 binning 2 1.0
1 binning 3 1.0
2 binning 4 1.0
2 doing 1 1.0
2 doing 2 1.0
1 doing 3 1.0
2 doing 4 1.0
2 equal 1 1.0
2 equal 2 1.0
1 equal 3 1.0
2 equal 4 1.0
2 frequency 1 1.0
2 frequency 2 1.0
1 frequency 3 1.0
2 frequency 4 1.0
2 binned 1 1.0
2 binned 2 1.0
1 binned 3 1.0
2 binned 4 1.0
2 bin 1 1.0
2 bin 2 1.0
1 bin 3 1.0
2 bin 4 1.0
2 output 1 1.0
2 output 2 1.0
1 output 3 0.33
1 output 4 0.33
2 effect 1 1.0
2 effect 2 1.0
1 effect 3 1.0
2 effect 4 1.0
2 optimal 1 1.0
2 optimal 2 1.0
1 optimal 3 1.0
2 optimal 4 1.0
2 strategy 1 1.0
2 strategy 2 1.0
1 strategy 3 1.0
2 strategy 4 1.0
2 research 1 1.0
2 research 2 1.0
1 research 3 1.0
2 research 4 1.0
2 necessity 1 1.0
2 necessity 2 1.0
1 necessity 3 1.0
2 necessity 4 1.0
2 accuracy 1 1.0
2 accuracy 2 1.0
1 accuracy 3 0.33
1 accuracy 4 0.33
2 transformation 1 1.0
2 transformation 2 1.0
1 transformation 3 1.0
2 transformation 4 1.0
2 weibull 1 1.0
2 weibull 2 1.0
2 weibull 3 1.0
1 weibull 4 1.0
2 future 1 1.0
2 future 2 1.0
2 future 3 1.0
1 future 4 1.0
2 hard 1 1.0
2 hard 2 1.0
2 hard 3 1.0
1 hard 4 1.0
2 disk 1 1.0
2 disk 2 1.0
2 disk 3 1.0
1 disk 4 1.0
2 drive 1 1.0
2 drive 2 1.0
2 drive 3 1.0
1 drive 4 1.0
2 evaluation 1 1.0
2 evaluation 2 1.0
2 evaluation 3 1.0
1 evaluation 4 1.0
2 scoring 1 1.0
2 scoring 2 1.0
2 scoring 3 1.0
1 scoring 4 1.0
2 implement 1 1.0
2 implement 2 1.0
2 implement 3 1.0
1 implement 4 1.0
2 partitioning 1 1.0
2 partitioning 2 1.0
2 partitioning 3 1.0
1 partitioning 4 1.0
2 function 1 1.0
1 function 2 0.56
2 function 3 1.0
1 function 4 0.11
2 stats 1 1.0
2 stats 2 1.0
2 stats 3 1.0
1 stats 4 1.0
2 football 1 1.0
2 football 2 1.0
2 football 3 1.0
1 football 4 1.0
2 score 1 1.0
2 score 2 1.0
2 score 3 1.0
1 score 4 1.0
2 between 1 1.0
2 between 2 1.0
2 between 3 1.0
1 between 4 1.0
2 two 1 1.0
2 two 2 1.0
2 two 3 1.0
1 two 4 1.0
2 oregon 1 1.0
2 oregon 2 1.0
2 oregon 3 1.0
1 oregon 4 1.0
2 duck 1 1.0
2 duck 2 1.0
2 duck 3 1.0
1 duck 4 1.0
2 fan 1 1.0
2 fan 2 1.0
2 fan 3 1.0
1 fan 4 1.0
2 florida 1 1.0
2 florida 2 1.0
2 florida 3 1.0
1 florida 4 1.0
2 nba 1 1.0
2 nba 2 1.0
2 nba 3 1.0
1 nba 4 1.0
2 position 1 1.0
2 position 2 1.0
2 position 3 1.0
1 position 4 1.0
2 day 1 1.0
1 day 2 0.33
2 day 3 1.0
1 day 4 0.33
2 nfl 1 1.0
2 nfl 2 1.0
2 nfl 3 1.0
1 nfl 4 1.0
2 offensive 1 1.0
2 offensive 2 1.0
2 offensive 3 1.0
1 offensive 4 1.0
2 player 1 1.0
2 player 2 1.0
2 player 3 1.0
1 player 4 1.0
2 great 1 1.0
2 great 2 1.0
2 great 3 1.0
1 great 4 1.0
2 tool 1 1.0
1 tool 2 0.56
2 tool 3 1.0
1 tool 4 0.11
2 tutorial 1 1.0
2 tutorial 2 1.0
2 tutorial 3 1.0
1 tutorial 4 1.0
2 wanted 1 1.0
1 wanted 2 0.33
2 wanted 3 1.0
1 wanted 4 0.33
2 salary 1 1.0
2 salary 2 1.0
2 salary 3 1.0
1 salary 4 1.0
2 combine 1 1.0
2 combine 2 1.0
2 combine 3 1.0
1 combine 4 1.0
2 additional 1 1.0
2 additional 2 1.0
2 additional 3 1.0
1 additional 4 1.0
2 date 1 1.0
1 date 2 0.27
2 date 3 1.0
1 date 4 0.39
2 condition 1 1.0
2 condition 2 1.0
2 condition 3 1.0
1 condition 4 1.0
2 met 1 1.0
2 met 2 1.0
2 met 3 1.0
1 met 4 1.0
2 performance 1 1.0
2 performance 2 1.0
2 performance 3 1.0
1 performance 4 1.0
2 capacity 1 1.0
2 capacity 2 1.0
2 capacity 3 1.0
1 capacity 4 1.0
2 dimension 1 1.0
2 dimension 2 1.0
2 dimension 3 1.0
1 dimension 4 1.0
2 wish 1 1.0
2 wish 2 1.0
2 wish 3 1.0
1 wish 4 1.0
2 history 1 1.0
2 history 2 1.0
2 history 3 1.0
1 history 4 1.0
2 taking 1 1.0
2 taking 2 1.0
2 taking 3 1.0
1 taking 4 1.0
2 simple 1 1.0
2 simple 2 1.0
2 simple 3 1.0
1 simple 4 1.0
2 amount 1 1.0
2 amount 2 1.0
2 amount 3 1.0
1 amount 4 1.0
2 storage 1 1.0
2 storage 2 1.0
2 storage 3 1.0
1 storage 4 1.0
2 recorded 1 1.0
2 recorded 2 1.0
2 recorded 3 1.0
1 recorded 4 1.0
2 week 1 1.0
2 week 2 1.0
2 week 3 1.0
1 week 4 1.0
2 over 1 1.0
2 over 2 1.0
2 over 3 1.0
1 over 4 1.0
2 added 1 1.0
2 added 2 1.0
2 added 3 1.0
1 added 4 1.0
2 increased 1 1.0
2 increased 2 1.0
2 increased 3 1.0
1 increased 4 1.0
2 stepwise 1 1.0
2 stepwise 2 1.0
2 stepwise 3 1.0
1 stepwise 4 1.0
2 fashion 1 1.0
2 fashion 2 1.0
2 fashion 3 1.0
1 fashion 4 1.0
2 whilst 1 1.0
2 whilst 2 1.0
2 whilst 3 1.0
1 whilst 4 1.0
2 occur 1 1.0
2 occur 2 1.0
2 occur 3 1.0
1 occur 4 1.0
2 achieve 1 1.0
2 achieve 2 1.0
2 achieve 3 1.0
1 achieve 4 1.0
2 meet 1 1.0
2 meet 2 1.0
2 meet 3 1.0
1 meet 4 1.0
2 range 1 1.0
2 range 2 1.0
2 range 3 1.0
1 range 4 1.0
2 real 1 1.0
2 real 2 1.0
2 real 3 1.0
1 real 4 1.0
2 offset 1 1.0
2 offset 2 1.0
2 offset 3 1.0
1 offset 4 1.0
2 call 1 1.0
2 call 2 1.0
2 call 3 1.0
1 call 4 1.0
2 received 1 1.0
2 received 2 1.0
2 received 3 1.0
1 received 4 1.0
2 center 1 1.0
2 center 2 1.0
2 center 3 1.0
1 center 4 1.0
2 volume 1 1.0
2 volume 2 1.0
2 volume 3 1.0
1 volume 4 1.0
2 year 1 1.0
1 year 2 0.56
2 year 3 1.0
1 year 4 0.11
2 start 1 1.0
2 start 2 1.0
2 start 3 1.0
1 start 4 1.0
2 best 1 1.0
2 best 2 1.0
2 best 3 1.0
1 best 4 1.0
2 weight 1 1.0
2 weight 2 1.0
2 weight 3 1.0
1 weight 4 1.0
2 all 1 1.0
2 all 2 1.0
2 all 3 1.0
1 all 4 1.0
2 perform 1 1.0
2 perform 2 1.0
2 perform 3 1.0
1 perform 4 1.0
2 individual 1 1.0
2 individual 2 1.0
2 individual 3 1.0
1 individual 4 1.0
2 etc 1 1.0
2 etc 2 1.0
2 etc 3 1.0
1 etc 4 1.0
2 duplicate 1 1.0
2 duplicate 2 1.0
2 duplicate 3 1.0
1 duplicate 4 1.0
2 per 1 1.0
2 per 2 1.0
2 per 3 1.0
1 per 4 1.0
2 cross 1 1.0
2 cross 2 1.0
2 cross 3 1.0
1 cross 4 1.0
2 limit 1 1.0
2 limit 2 1.0
2 limit 3 1.0
1 limit 4 1.0
2 large 1 1.0
2 large 2 1.0
2 large 3 1.0
1 large 4 1.0
2 margin 1 1.0
2 margin 2 1.0
2 margin 3 1.0
1 margin 4 1.0
2 advance 1 1.0
2 advance 2 1.0
2 advance 3 1.0
1 advance 4 1.0
2 lower 1 1.0
2 lower 2 1.0
2 lower 3 1.0
1 lower 4 1.0
2 automated 1 1.0
2 automated 2 1.0
2 automated 3 1.0
1 automated 4 1.0
2 throwing 1 1.0
2 throwing 2 1.0
2 throwing 3 1.0
1 throwing 4 1.0
2 study 1 1.0
2 study 2 1.0
2 study 3 1.0
1 study 4 1.0
2 such 1 1.0
1 such 2 0.11
2 such 3 1.0
1 such 4 0.56
2 econometrics 1 1.0
2 econometrics 2 1.0
2 econometrics 3 1.0
1 econometrics 4 1.0
2 greater 1 1.0
2 greater 2 1.0
2 greater 3 1.0
1 greater 4 1.0
2 binary 1 1.0
2 binary 2 1.0
2 binary 3 1.0
1 binary 4 1.0
2 adjusted 1 1.0
2 adjusted 2 1.0
2 adjusted 3 1.0
1 adjusted 4 1.0
2 program 1 1.0
2 program 2 1.0
2 program 3 1.0
1 program 4 1.0
2 procedure 1 1.0
2 procedure 2 1.0
2 procedure 3 1.0
1 procedure 4 1.0
2 hooking 1 1.0
2 hooking 2 1.0
2 hooking 3 1.0
1 hooking 4 1.0
2 larger 1 1.0
2 larger 2 1.0
2 larger 3 1.0
1 larger 4 1.0
2 correct 1 1.0
2 correct 2 1.0
2 correct 3 1.0
1 correct 4 1.0
2 fit 1 1.0
2 fit 2 1.0
2 fit 3 1.0
1 fit 4 1.0
2 validation 1 1.0
2 validation 2 1.0
2 validation 3 1.0
1 validation 4 1.0
2 imbalance 1 1.0
2 imbalance 2 1.0
2 imbalance 3 1.0
1 imbalance 4 1.0
2 handle 1 1.0
2 handle 2 1.0
2 handle 3 1.0
1 handle 4 1.0
2 class 1 1.0
2 class 2 1.0
2 class 3 1.0
1 class 4 1.0
2 balance 1 1.0
2 balance 2 1.0
2 balance 3 1.0
1 balance 4 1.0
2 minority 1 1.0
2 minority 2 1.0
2 minority 3 1.0
1 minority 4 1.0
1 move 1 0.33
2 move 2 1.0
2 move 3 1.0
1 move 4 0.33
1 user 1 0.33
1 user 2 0.33
2 user 3 1.0
2 user 4 1.0
1 interface 1 1.0
2 interface 2 1.0
2 interface 3 1.0
2 interface 4 1.0
1 puzzled 1 1.0
2 puzzled 2 1.0
2 puzzled 3 1.0
2 puzzled 4 1.0
1 find 1 0.33
2 find 2 1.0
2 find 3 1.0
1 find 4 0.33
1 have 1 0.58
2 have 2 0.77
2 have 3 0.89
2 have 4 0.09
1 explored 1 1.0
2 explored 2 1.0
2 explored 3 1.0
2 explored 4 1.0
1 current 1 1.0
2 current 2 1.0
2 current 3 1.0
2 current 4 1.0
1 see 1 0.17
2 see 2 0.5
1 see 3 0.0
1 see 4 0.0
1 result 1 0.02
1 result 2 0.2
1 result 3 0.11
2 result 4 1.0
1 bug 1 1.0
2 bug 2 1.0
2 bug 3 1.0
2 bug 4 1.0
1 wa 1 0.11
2 wa 2 0.11
2 wa 3 0.11
2 wa 4 0.11
1 appears 1 1.0
2 appears 2 1.0
2 appears 3 1.0
2 appears 4 1.0
1 interpreting 1 1.0
2 interpreting 2 1.0
2 interpreting 3 1.0
2 interpreting 4 1.0
1 integer 1 1.0
2 integer 2 1.0
2 integer 3 1.0
2 integer 4 1.0
1 na 1 1.0
2 na 2 1.0
2 na 3 1.0
2 na 4 1.0
1 explore 1 1.0
2 explore 2 1.0
2 explore 3 1.0
2 explore 4 1.0
1 interprets 1 1.0
2 interprets 2 1.0
2 interprets 3 1.0
2 interprets 4 1.0
1 create 1 1.0
2 create 2 1.0
2 create 3 1.0
2 create 4 1.0
1 workbook 1 1.0
2 workbook 2 1.0
2 workbook 3 1.0
2 workbook 4 1.0
2 predict 1 0.13
1 predict 2 0.07
2 predict 3 0.13
1 predict 4 0.01
1 same 1 0.81
2 same 2 1.0
2 same 3 0.43
2 same 4 1.0
1 variable 1 0.56
2 variable 2 1.0
1 variable 3 0.11
2 variable 4 1.0
1 creation 1 1.0
2 creation 2 1.0
2 creation 3 1.0
2 creation 4 1.0
1 dataset 1 0.87
2 dataset 2 1.0
2 dataset 3 1.0
2 dataset 4 0.6
1 uploaded 1 0.73
2 uploaded 2 0.2
2 uploaded 3 1.0
2 uploaded 4 1.0
2 modeling 1 0.2
2 modeling 2 1.0
1 modeling 3 0.73
2 modeling 4 1.0
2 need 1 0.43
2 need 2 1.0
2 need 3 0.43
1 need 4 0.62
1 figured 1 1.0
2 figured 2 1.0
2 figured 3 1.0
2 figured 4 1.0
1 first 1 1.0
2 first 2 1.0
2 first 3 1.0
2 first 4 1.0
1 second 1 1.0
2 second 2 1.0
2 second 3 1.0
2 second 4 1.0
1 exclude 1 1.0
2 exclude 2 1.0
2 exclude 3 1.0
2 exclude 4 1.0
1 redundant 1 1.0
2 redundant 2 1.0
2 redundant 3 1.0
2 redundant 4 1.0
1 occurs 1 0.33
2 occurs 2 1.0
2 occurs 3 1.0
1 occurs 4 0.33
1 being 1 0.33
1 being 2 0.33
2 being 3 1.0
2 being 4 1.0
1 hello 1 0.56
2 hello 2 1.0
2 hello 3 1.0
1 hello 4 0.11
1 able 1 0.78
2 able 2 1.0
2 able 3 0.33
2 able 4 1.0
1 existing 1 0.56
2 existing 2 1.0
1 existing 3 0.11
2 existing 4 1.0
1 new 1 0.78
2 new 2 1.0
2 new 3 0.33
2 new 4 1.0
1 next 1 0.33
2 next 2 1.0
1 next 3 0.33
2 next 4 1.0
1 disabled 1 1.0
2 disabled 2 1.0
2 disabled 3 1.0
2 disabled 4 1.0
1 watson 1 0.44
2 watson 2 0.79
2 watson 3 0.37
2 watson 4 0.16
1 edit 1 1.0
2 edit 2 1.0
2 edit 3 1.0
2 edit 4 1.0
1 property 1 1.0
2 property 2 1.0
2 property 3 1.0
2 property 4 1.0
1 select 1 1.0
2 select 2 1.0
2 select 3 1.0
2 select 4 1.0
1 displayed 1 0.33
1 displayed 2 0.33
2 displayed 3 1.0
2 displayed 4 1.0
1 source 1 1.0
2 source 2 1.0
2 source 3 1.0
2 source 4 1.0
1 window 1 1.0
2 window 2 1.0
2 window 3 1.0
2 window 4 1.0
1 nevada 1 1.0
2 nevada 2 1.0
2 nevada 3 1.0
2 nevada 4 1.0
1 chart 1 0.2
1 chart 2 0.47
2 chart 3 1.0
2 chart 4 1.0
1 table 1 1.0
2 table 2 1.0
2 table 3 1.0
2 table 4 1.0
1 standard 1 0.11
1 standard 2 0.11
2 standard 3 1.0
1 standard 4 0.11
1 format 1 0.24
1 format 2 0.43
2 format 3 1.0
2 format 4 1.0
1 failure 1 0.33
2 failure 2 1.0
2 failure 3 1.0
1 failure 4 0.33
1 month 1 0.56
2 month 2 1.0
2 month 3 1.0
1 month 4 0.11
1 quantity 1 1.0
2 quantity 2 1.0
2 quantity 3 1.0
2 quantity 4 1.0
1 having 1 1.0
2 having 2 1.0
2 having 3 1.0
2 having 4 1.0
2 report 1 0.2
1 report 2 0.47
2 report 3 0.2
2 report 4 1.0
1 return 1 1.0
2 return 2 1.0
2 return 3 1.0
2 return 4 1.0
1 subsequent 1 1.0
2 subsequent 2 1.0
2 subsequent 3 1.0
2 subsequent 4 1.0
1 recognize 1 0.33
1 recognize 2 0.33
2 recognize 3 1.0
2 recognize 4 1.0
1 much 1 0.56
2 much 2 1.0
1 much 3 0.11
2 much 4 1.0
1 suggestion 1 1.0
2 suggestion 2 1.0
2 suggestion 3 1.0
2 suggestion 4 1.0
1 looking 1 0.11
1 looking 2 0.11
1 looking 3 0.11
2 looking 4 1.0
1 rate 1 1.0
2 rate 2 1.0
2 rate 3 1.0
2 rate 4 1.0
1 recent 1 1.0
2 recent 2 1.0
2 recent 3 1.0
2 recent 4 1.0
2 show 1 0.2
1 show 2 0.56
2 show 3 0.73
2 show 4 0.73
1 fine 1 1.0
2 fine 2 1.0
2 fine 3 1.0
2 fine 4 1.0
1 mix 1 1.0
2 mix 2 1.0
2 mix 3 1.0
2 mix 4 1.0
1 encoded 1 0.33
2 encoded 2 1.0
1 encoded 3 0.33
2 encoded 4 1.0
1 problem 1 1.0
2 problem 2 1.0
2 problem 3 1.0
2 problem 4 1.0
1 loading 1 0.56
1 loading 2 0.11
2 loading 3 1.0
2 loading 4 1.0
1 keep 1 1.0
2 keep 2 1.0
2 keep 3 1.0
2 keep 4 1.0
1 appearing 1 1.0
2 appearing 2 1.0
2 appearing 3 1.0
2 appearing 4 1.0
1 basic 1 1.0
2 basic 2 1.0
2 basic 3 1.0
2 basic 4 1.0
